dump.vcd
$date
	Thu Aug 06 18:26:36 2020
$end
$version
	ModelSim Version 10.1c
$end
$timescale
	10ps
$end
$scope module test $end
$var parameter 72 ! INPUT_DATA $end
$var parameter 80 " EXPECT_DATA $end
$var parameter 32 # period $end
$var reg 1 $ clk $end
$var reg 1 % reset $end
$var reg 1 & nt $end
$var reg 3 ' xi [2:0] $end
$var reg 3 ( yi [2:0] $end
$var wire 1 ) xo [2] $end
$var wire 1 * xo [1] $end
$var wire 1 + xo [0] $end
$var wire 1 , yo [2] $end
$var wire 1 - yo [1] $end
$var wire 1 . yo [0] $end
$var wire 1 / po $end
$var wire 1 0 busy $end
$var integer 32 1 i $end
$var integer 32 2 j $end
$var integer 32 3 k $end
$var integer 32 4 l $end
$var integer 32 5 out_f $end
$var integer 32 6 err $end
$var integer 32 7 pattern_num $end
$var integer 32 8 total_num $end
$var integer 32 9 total_cycle_num $end
$var integer 32 : a $end
$var integer 32 ; b $end
$var integer 32 < c $end
$var integer 32 = d $end
$var reg 6 > data_tmp_expect [5:0] $end
$var reg 6 ? data_tmp_i1 [5:0] $end
$var reg 6 @ data_tmp_i2 [5:0] $end
$var reg 6 A data_tmp_i3 [5:0] $end
$scope module top $end
$var wire 1 B clk $end
$var wire 1 C reset $end
$var wire 1 D nt $end
$var wire 1 E xi [2] $end
$var wire 1 F xi [1] $end
$var wire 1 G xi [0] $end
$var wire 1 H yi [2] $end
$var wire 1 I yi [1] $end
$var wire 1 J yi [0] $end
$var reg 1 K busy $end
$var reg 1 L po $end
$var reg 3 M xo [2:0] $end
$var reg 3 N yo [2:0] $end
$var reg 3 O x1 [2:0] $end
$var reg 3 P y1 [2:0] $end
$var reg 3 Q x2 [2:0] $end
$var reg 3 R y2 [2:0] $end
$var reg 3 S x3 [2:0] $end
$var reg 3 T y3 [2:0] $end
$var reg 4 U x_temp [3:0] $end
$var reg 4 V y_temp [3:0] $end
$var reg 3 W state [2:0] $end
$var wire 1 X area [4] $end
$var wire 1 Y area [3] $end
$var wire 1 Z area [2] $end
$var wire 1 [ area [1] $end
$var wire 1 \ area [0] $end
$var wire 1 ] sub_tri1 [5] $end
$var wire 1 ^ sub_tri1 [4] $end
$var wire 1 _ sub_tri1 [3] $end
$var wire 1 ` sub_tri1 [2] $end
$var wire 1 a sub_tri1 [1] $end
$var wire 1 b sub_tri1 [0] $end
$var wire 1 c sub_tri2 [5] $end
$var wire 1 d sub_tri2 [4] $end
$var wire 1 e sub_tri2 [3] $end
$var wire 1 f sub_tri2 [2] $end
$var wire 1 g sub_tri2 [1] $end
$var wire 1 h sub_tri2 [0] $end
$var wire 1 i sub_tri3 [5] $end
$var wire 1 j sub_tri3 [4] $end
$var wire 1 k sub_tri3 [3] $end
$var wire 1 l sub_tri3 [2] $end
$var wire 1 m sub_tri3 [1] $end
$var wire 1 n sub_tri3 [0] $end
$var wire 1 o abs_tri1 [4] $end
$var wire 1 p abs_tri1 [3] $end
$var wire 1 q abs_tri1 [2] $end
$var wire 1 r abs_tri1 [1] $end
$var wire 1 s abs_tri1 [0] $end
$var wire 1 t abs_tri2 [4] $end
$var wire 1 u abs_tri2 [3] $end
$var wire 1 v abs_tri2 [2] $end
$var wire 1 w abs_tri2 [1] $end
$var wire 1 x abs_tri2 [0] $end
$var wire 1 y abs_tri3 [4] $end
$var wire 1 z abs_tri3 [3] $end
$var wire 1 { abs_tri3 [2] $end
$var wire 1 | abs_tri3 [1] $end
$var wire 1 } abs_tri3 [0] $end
$var wire 1 ~ total [4] $end
$var wire 1 !! total [3] $end
$var wire 1 "! total [2] $end
$var wire 1 #! total [1] $end
$var wire 1 $! total [0] $end
$upscope $end
$upscope $end
$enddefinitions $end
#0
$dumpvars
1$
0%
0&
bz '
bz (
bx >
bx ?
bx @
bx A
xK
xL
bx M
bx N
bx O
bx P
bx Q
bx R
bx S
bx T
bx U
bx V
bx W
b1111101000 #
b11010010110111001110000011101010111010000101110011001000110000101110100 !
b1100101011110000111000001100101011000110111010000101110011001000110000101110100 "
b0 1
b0 2
b0 3
b0 4
b10 5
b0 6
b1 7
b0 8
bx 9
bx :
bx ;
bx <
bx =
x+
x*
x)
x.
x-
x,
x/
x0
x\
x[
xZ
xY
xX
xb
xa
x`
x_
x^
x]
xh
xg
xf
xe
xd
xc
xn
xm
xl
xk
xj
xi
xs
xr
xq
xp
xo
xx
xw
xv
xu
xt
x}
x|
x{
xz
xy
x$!
x#!
x"!
x!!
x~
zJ
zI
zH
zG
zF
zE
0D
0C
1B
$end
#5000
0$
0B
1%
1C
#10000
1$
1B
b0 9
0K
b0 O
b0 Q
b0 S
b0 P
b0 R
b0 T
b0 U
b0 V
0L
b0 W
00
0h
0g
0f
0e
0d
0c
0\
0[
0Z
0Y
0X
0b
0a
0`
0_
0^
0]
0n
0m
0l
0k
0j
0i
0/
0}
0|
0{
0z
0y
0s
0r
0q
0p
0o
0x
0w
0v
0u
0t
0$!
0#!
0"!
0!!
0~
#14999
0%
b11 3
0C
#15000
0$
0B
1&
1D
#18000
b1001 ?
b1 '
b1 (
1J
0I
0H
1G
0F
0E
#20000
1$
1B
b1 9
b1 O
b1 P
b1 U
b1 V
b1 W
1\
#22000
bz '
bz (
zJ
zI
zH
zG
zF
zE
#25000
0$
0B
0&
0D
#28000
b100001 @
b100 '
b1 (
1J
0I
0H
0G
0F
1E
#30000
1$
1B
b10 9
b100 Q
b1 R
b10 W
1K
1Z
1Y
1X
1h
1f
1e
1d
1c
10
1x
1w
1$!
1#!
#32000
bz '
bz (
zJ
zI
zH
zG
zF
zE
#35000
0$
0B
#38000
b1111 A
b1 '
b111 (
1J
1I
1H
1G
0F
0E
#40000
1$
1B
b11 9
b1 S
b111 T
b11 W
0\
1[
0Z
0Y
0h
1g
0f
0e
0c
0x
1t
0$!
1~
#42000
bz '
bz (
b11 1
zJ
zI
zH
zG
zF
zE
#45000
0$
0B
b0 3
#50000
1$
1B
b100 9
b10 U
1L
b1 M
b1 N
1/
1.
0-
0,
1+
0*
0)
0g
1f
1e
0d
1m
1k
1j
1i
1|
1{
0w
1v
1u
0t
#55000
0$
0B
#60000
1$
1B
b1001 >
b1 4
b101 9
b11 U
b10 M
0+
1*
1g
0e
0m
1l
0k
0|
1z
1w
0u
#65000
0$
0B
#70000
1$
1B
b10001 >
b10 4
b110 9
b100 U
b11 M
1+
0g
0f
1m
1k
0j
1|
0{
0z
1y
0w
0v
#75000
0$
0B
#80000
1$
1B
b11001 >
b11 4
b111 9
b101 U
b100 M
0+
0*
1)
1g
1e
1d
1c
0m
0l
0|
1z
1w
1v
1"!
1!!
#85000
0$
0B
#90000
1$
1B
b100001 >
b100 4
b1000 9
b10 V
b1 U
0L
1b
1a
1h
1f
0d
0c
0k
0i
0/
0z
0y
1x
1u
1s
1r
0"!
0!!
#95000
0$
0B
#100000
1$
1B
b1001 9
b10 U
1L
b1 M
b10 N
1/
0.
1-
1+
0)
0g
0f
1m
1k
1j
1i
1|
1{
0w
0v
#105000
0$
0B
#110000
1$
1B
b1010 >
b101 4
b1010 9
b11 U
b10 M
0+
1*
1g
0e
0m
1l
0k
0|
1z
1w
0u
#115000
0$
0B
#120000
1$
1B
b10010 >
b110 4
b1011 9
b100 U
b11 M
1+
0g
1f
1e
1d
1c
1m
1k
0j
1|
0{
0z
1y
0#!
1!!
#125000
0$
0B
#130000
1$
1B
b11010 >
b111 4
b1100 9
b101 U
0L
1g
0e
0m
0l
0/
0|
1z
0w
1u
1"!
0!!
0~
#135000
0$
0B
#140000
1$
1B
b1101 9
b11 V
b1 U
0b
1`
0h
0g
1e
0d
0c
0k
0i
0z
0y
0x
1v
0s
1q
1#!
0"!
1~
#145000
0$
0B
#150000
1$
1B
b1110 9
b10 U
1L
b1 M
b11 N
1/
1.
0*
1g
0e
1m
1k
1j
1i
1|
1{
1w
0u
#155000
0$
0B
#160000
1$
1B
b1011 >
b1000 4
b1111 9
b11 U
b10 M
0+
1*
0g
0f
0m
1l
0k
0|
1z
0w
0v
#165000
0$
0B
#170000
1$
1B
b10011 >
b1001 4
b10000 9
b100 U
b11 M
1+
1g
1e
1d
1c
1m
1k
0j
1|
0{
0z
1y
1w
1v
1"!
1!!
#175000
0$
0B
#180000
1$
1B
b11011 >
b1010 4
b10001 9
b101 U
0L
0g
1f
0e
0m
0l
0/
0|
1z
0w
1u
0"!
0~
#185000
0$
0B
#190000
1$
1B
b10010 9
b100 V
b1 U
1b
0a
0`
1_
1h
0f
1e
0d
0c
0k
0i
0z
0y
1x
0v
1s
0r
0q
1p
0!!
1~
#195000
0$
0B
#200000
1$
1B
b10011 9
b10 U
1L
b1 M
b100 N
1/
0.
0-
1,
0*
1g
0e
1m
1k
1j
1i
1|
1{
1w
0u
#205000
0$
0B
#210000
1$
1B
b1100 >
b1011 4
b10100 9
b11 U
b10 M
0+
1*
0g
1f
1e
1d
1c
0m
1l
0k
0|
1z
0#!
1!!
#215000
0$
0B
#220000
1$
1B
b10100 >
b1100 4
b10101 9
b100 U
0L
1g
0e
1m
1k
0j
0/
1|
0{
0z
1y
0w
1u
1"!
0!!
0~
#225000
0$
0B
#230000
1$
1B
b10110 9
b101 U
0g
0f
0m
0l
0|
1z
1w
1v
0"!
1~
#235000
0$
0B
#240000
1$
1B
b10111 9
b101 V
b1 U
0b
1`
0h
1g
1f
0d
0c
0k
0i
0z
0y
0x
0u
0s
1q
1#!
#245000
0$
0B
#250000
1$
1B
b11000 9
b10 U
1L
b1 M
b101 N
1/
1.
1+
0*
0g
0f
1m
1k
1j
1i
1|
1{
0w
0v
#255000
0$
0B
#260000
1$
1B
b1101 >
b1101 4
b11001 9
b11 U
b10 M
0+
1*
1g
1e
1d
1c
0m
1l
0k
0|
1z
1w
1v
1"!
1!!
#265000
0$
0B
#270000
1$
1B
b10101 >
b1110 4
b11010 9
b100 U
0L
0g
1f
0e
1m
1k
0j
0/
1|
0{
0z
1y
0w
1u
0"!
0~
#275000
0$
0B
#280000
1$
1B
b11011 9
b101 U
1g
1e
0d
0m
0l
0|
1z
1w
0v
0u
1t
1"!
0!!
1~
#285000
0$
0B
#290000
1$
1B
b11100 9
b110 V
b1 U
1b
1a
1h
0f
0e
0c
0k
0i
0z
0y
1x
0t
1s
1r
0"!
#295000
0$
0B
#300000
1$
1B
b11101 9
b10 U
1L
b1 M
b110 N
1/
0.
1-
1+
0*
0g
1f
1e
1d
1c
1m
1k
1j
1i
1|
1{
0#!
1!!
#305000
0$
0B
#310000
1$
1B
b1110 >
b1111 4
b11110 9
b11 U
0L
1g
0e
0m
1l
0k
0/
0|
1z
0w
1u
1"!
0!!
0~
#315000
0$
0B
#320000
1$
1B
b11111 9
b100 U
0g
0f
1m
1k
0j
1|
0{
0z
1y
1w
1v
0"!
1~
#325000
0$
0B
#330000
1$
1B
b100000 9
b101 U
1g
1e
0d
0m
0l
0|
1z
0w
0u
1t
1"!
1!!
#335000
0$
0B
#340000
1$
1B
b100001 9
b111 V
b1 U
0b
0`
0_
1^
0h
0g
0e
0c
0k
0i
0z
0y
0x
0v
0t
0s
0q
0p
1o
1#!
0"!
0!!
#345000
0$
0B
#350000
1$
1B
b100010 9
b100 W
1L
b111 N
1/
1.
#355000
0$
0B
#360000
1$
1B
b1111 >
b10000 4
b100011 9
0L
0K
b0 W
0/
00
#365000
0$
0B
b11 3
#370000
1$
1B
b100100 9
#375000
0$
0B
1&
1D
#378000
b1 '
b1 (
1J
0I
0H
1G
0F
0E
#380000
1$
1B
b100101 9
b1 V
b1 W
0a
0^
1g
1d
1w
1t
0r
0o
#382000
bz '
bz (
zJ
zI
zH
zG
zF
zE
#385000
0$
0B
0&
0D
#388000
b111001 @
b111 '
b1 (
1J
0I
0H
1G
1F
1E
#390000
1$
1B
b100110 9
b111 Q
b10 W
1K
0[
1Z
0X
0g
1f
0d
1c
10
0w
1v
1u
0#!
1"!
1!!
#392000
bz '
bz (
zJ
zI
zH
zG
zF
zE
#395000
0$
0B
#398000
b1011 A
b1 '
b11 (
1J
1I
0H
1G
0F
0E
#400000
1$
1B
b100111 9
b11 T
b11 W
1Y
1e
0c
0t
0~
#402000
bz '
bz (
b110 1
zJ
zI
zH
zG
zF
zE
#405000
0$
0B
#410000
1$
1B
b101000 9
b10 U
1L
b1 N
1/
0-
0,
1g
0f
1m
1l
1k
1j
1i
1|
1w
0v
#415000
0$
0B
#420000
1$
1B
b1001 >
b10001 4
b101001 9
b11 U
b10 M
0+
1*
0g
0m
0|
1{
0w
#425000
0$
0B
#430000
1$
1B
b10001 >
b10010 4
b101010 9
b100 U
b11 M
1+
1g
1f
0e
1m
0l
1|
1w
1v
0u
#435000
0$
0B
#440000
1$
1B
b11001 >
b10011 4
b101011 9
b101 U
b100 M
0+
0*
1)
0g
0m
0|
0{
1z
0w
#445000
0$
0B
#450000
1$
1B
b100001 >
b10100 4
b101100 9
b110 U
b101 M
1+
1g
0f
1m
1l
0k
1|
1w
0v
#455000
0$
0B
#460000
1$
1B
b101001 >
b10101 4
b101101 9
b111 U
b110 M
0+
1*
0g
0m
0|
1{
0w
#465000
0$
0B
#470000
1$
1B
b110001 >
b10110 4
b101110 9
b1000 U
b111 M
1+
1g
1f
1e
1d
1c
1m
0l
1|
1w
0"!
0!!
1~
#475000
0$
0B
#480000
1$
1B
b111001 >
b10111 4
b101111 9
b10 V
b1 U
0L
1a
1`
0e
0d
0c
0m
0j
0i
0/
0|
0{
0z
1v
1r
1q
1"!
1!!
0~
#485000
0$
0B
#490000
1$
1B
b110000 9
b10 U
1L
b1 M
b10 N
1/
0.
1-
0*
0)
0g
1m
1l
1k
1j
1i
1|
0w
#495000
0$
0B
#500000
1$
1B
b1010 >
b11000 4
b110001 9
b11 U
b10 M
0+
1*
1g
0f
0m
0|
1{
1w
0v
#505000
0$
0B
#510000
1$
1B
b10010 >
b11001 4
b110010 9
b100 U
b11 M
1+
0g
1m
0l
1|
0w
#515000
0$
0B
#520000
1$
1B
b11010 >
b11010 4
b110011 9
b101 U
b100 M
0+
0*
1)
1g
1f
1e
1d
1c
0m
0|
0{
1z
1w
0"!
0!!
1~
#525000
0$
0B
#530000
1$
1B
b100010 >
b11011 4
b110100 9
b110 U
0L
0g
1m
1l
0k
0/
1|
0w
1v
1"!
#535000
0$
0B
#540000
1$
1B
b110101 9
b111 U
1g
0f
0m
0|
1{
1w
0"!
1!!
#545000
0$
0B
#550000
1$
1B
b110110 9
b1000 U
0g
1m
0l
1|
0w
0v
1u
1"!
#555000
0$
0B
#560000
1$
1B
b110111 9
b11 V
b1 U
0a
1_
0e
0d
0c
0m
0j
0i
0|
0{
0z
0u
0r
1p
0~
#565000
0$
0B
#570000
1$
1B
b111000 9
b100 W
1L
b1 M
b11 N
1/
1.
1+
0)
#575000
0$
0B
#580000
1$
1B
b1011 >
b11100 4
b1101101011000000 8
